srv.realpython.net:HSTS	0	18637	1641788966348,1,1,2
cms-xch-chicago.33across.com^partitionKey=%28http%2Cwordpress.com%29:HSTS	0	18666	1644302190958,1,1,2
account.microsoft.com^partitionKey=%28http%2Cmicrosoft.com%29:HSTS	0	18685	1645961940866,1,0,2
ade.clmbtech.com:HSTS	0	18641	1636584989978,1,1,2
www.facebook.com^partitionKey=%28http%2Cmicrosoft.com%29:HSTS	0	18685	1645962280139,1,1,2
www.google-analytics.com^partitionKey=%28http%2Cvisualstudio.com%29:HSTS	0	18709	1648079990078,1,1,2
mcuoneclipse.com:HSTS	0	18647	1642638627384,1,0,2
prod.registrar.skype.com^partitionKey=%28http%2Clive.com%29:HSTS	5	18727	1649595777162,1,1,2
www.phillipsj.net:HSTS	15	18653	1643158622974,1,0,2
gateway.yieldify-production.com:HSTS	1	18651	1643058937588,1,0,2
etechgoodness.wordpress.com^partitionKey=%28http%2Cwordpress.com%29:HSTS	0	18666	1628318186983,1,0,2
www.oreilly.com:HSTS	0	18636	1641766149366,1,1,2
contextual.media.net:HSTS	2	18651	1612127738906,1,0,2
glyph.medium.com:HSTS	0	18652	1627164260842,1,1,2
ow2.res.office365.com:HSTS	1	18627	1640331942082,1,1,2
d9111520052683418079-t3135142919738544845.id.amgdgt.com:HSTS	0	18650	1627207958913,1,0,2
s.yimg.com:HSTS	7	18652	1627103632676,1,0,2
cdn.jsdelivr.net^partitionKey=%28http%2Ctheaustralian.com.au%29:HSTS	5	18727	1649577500308,1,1,2
e.infogram.com^partitionKey=%28http%2Cinfogram.com%29:HSTS	0	18883	1663056352028,1,1,2
www.tg4.ie:HSTS	2	18658	1643097165064,1,1,2
cdn.syndication.twimg.com^partitionKey=%28http%2Cderekmolloy.ie%29:HSTS	0	18665	2243878560859,1,0,2
superuser.com:HSTS	15	18653	1627174621764,1,0,2
www.google-analytics.com:HSTS	18	18653	1622510296353,1,1,2
www.imdb.com:HSTS	0	18637	1657727598464,1,1,2
clickserve.dartsearch.net:HSTS	0	18632	1641365448738,1,1,2
config.edge.skype.com^partitionKey=%28http%2Clive.com%29:HSTS	5	18727	1649595775192,1,1,2
y2y10mz7jy-3.algolianet.com:HSTS	1	18641	1642143828250,1,1,2
shell.cdn.office.net^partitionKey=%28http%2Cmicrosoft.com%29:HSTS	0	18685	1617017936063,1,0,2
pythonhosted.org:HSTS	0	18637	1641787095886,1,1,2
contextual.media.net^partitionKey=%28http%2Cwordpress.com%29:HSTS	0	18666	1613370987421,1,0,2
www.onsemi.com:HSTS	1	18652	1674594930633,1,0,2
snapcraft.io^partitionKey=%28http%2Csnapcraft.io%29:HSTS	0	18685	1630149862211,1,0,2
mc.yandex.ru:HSTS	1	18646	1642628959694,1,0,2
www.google-analytics.com^partitionKey=%28http%2Catlassian.com%29:HSTS	0	18658	1622962777524,1,1,2
code.visualstudio.com^partitionKey=%28http%2Cvisualstudio.com%29:HSTS	1	18710	1648080238338,1,0,2
ss64.com:HSTS	0	18653	1643158690247,1,1,2
satoshinm.github.io:HSTS	4	18653	1642659764948,1,0,2
pr.ybp.yahoo.com:HSTS	0	18652	1643087634596,1,0,2
gum.criteo.com^partitionKey=%28http%2Ctheaustralian.com.au%29:HSTS	5	18727	1649577510529,1,0,2
media.giphy.com:HSTS	0	18647	1611189181274,1,0,2
dashboard.snapcraft.io:HSTS	2	18641	1613202765773,1,0,2
fonts.googleapis.com^partitionKey=%28http%2Ccprieto.com%29:HSTS	0	18664	1644186327383,1,0,2
account.live.com^partitionKey=%28http%2Clive.com%29:HSTS	0	18685	1645961907628,1,1,2
upload.wikimedia.org:HSTS	4	18652	1717872495970,1,1,2
stats.g.doubleclick.net^partitionKey=%28http%2Cvisualstudio.com%29:HSTS	0	18709	1627430390455,1,1,2
cdnjs.cloudflare.com^partitionKey=%28http%2Ccodelite.org%29:HSTS	0	18664	1628430379295,1,0,2
beap-bc.yahoo.com^partitionKey=%28http%2Cstackoverflow.com%29:HSTS	0	18664	1628202294632,1,0,2
img03.en25.com:HSTS	1	18651	1643058941064,1,1,2
metrics.news.com.au:HSTS	0	18627	1640938938320,1,1,2
cdn.kde.org:HSTS	1	18646	1626797546145,1,0,2
newscorpau.demdex.net^partitionKey=%28http%2Ctheaustralian.com.au%29:HSTS	4	18727	1649577501571,1,1,2
sourceforge.net:HSTS	0	18637	1641800872446,1,0,2
cdnjs.cloudflare.com:HSTS	16	18653	1627402599247,1,0,2
a.lw.skype.com:HSTS	16	18653	1619401804889,1,0,2
public-api.wordpress.com:HSTS	1	18647	1626654405760,1,0,2
www.clickcease.com^partitionKey=%28http%2Cvermontmedical.com.au%29:HSTS	0	18710	1648163331173,1,0,2
r4.res.office365.com:HSTS	2	18634	1641524962076,1,1,2
trouter-easia-b.trouter.skype.com:HSTS	5	18637	1641785420631,1,1,2
fonts.googleapis.com^partitionKey=%28http%2Creddit.com%29:HSTS	3	18727	1649579215926,1,0,2
m.media-amazon.com^partitionKey=%28http%2Cderekmolloy.ie%29:HSTS	0	18665	1612826444435,1,0,2
cdn.hackaday.io:HSTS	3	18647	1626654715996,1,1,2
outlook-1.cdn.office.net^partitionKey=%28http%2Clive.com%29:HSTS	6	18727	1649595810771,1,1,2
aexp.demdex.net:HSTS	1	18651	1643058279418,1,1,2
use.typekit.net:HSTS	6	18652	1643097160171,1,1,2
graph.facebook.com:HSTS	3	18652	1627088804965,1,0,2
www.jetbrains.com:HSTS	0	18652	1643074949447,1,0,2
www.google-analytics.com^partitionKey=%28http%2Cderekmolloy.ie%29:HSTS	0	18665	1623626440784,1,1,2
stackoverflow.com^partitionKey=%28http%2Cstackoverflow.com%29:HSTS	0	18664	1628202307529,1,0,2
gum.criteo.com^partitionKey=%28http%2Cmost-useful.com%29:HSTS	0	18727	1649579598213,1,0,2
d16fk4ms6rqz1v.cloudfront.net:HSTS	0	18643	1610767017816,1,1,2
payments.google.com:HSTS	0	18632	1641365422644,1,1,2
prod.registrar.skype.com:HSTS	17	18653	1643161808049,1,1,2
cdn.ampproject.org^partitionKey=%28http%2Ctheaustralian.com.au%29:HSTS	0	18665	1644274591255,1,1,2
external-content.duckduckgo.com:HSTS	1	18627	1640938769894,1,0,2
storage.live.com^partitionKey=%28http%2Clive.com%29:HSTS	6	18883	1663056687111,1,1,2
gitlab.com:HSTS	13	18658	1643158619933,1,0,2
www.google-analytics.com^partitionKey=%28http%2Cx410.dev%29:HSTS	0	18727	1628929688266,1,1,2
www.tutorialspoint.com:HSTS	6	18653	1674694732024,1,1,2
sjrtp1.marketo.com:HSTS	1	18652	1674725898571,1,0,2
supportmetrics.apple.com^partitionKey=%28http%2Capple.com%29:HSTS	0	18685	1645962418578,1,1,2
docs.python.org:HSTS	8	18653	1926982609705,1,1,2
www.tij.co.jp:HSTS	0	18646	1642628870161,1,0,2
cdn.optimizely.com^partitionKey=%28http%2Catlassian.com%29:HSTS	1	18664	1628418193845,1,0,2
accounts.google.com:HSTS	2	18653	1643158537374,1,1,2
a16180790160.cdn.optimizely.com:HSTS	0	18652	1627380264544,1,0,2
www.accuweather.com:HSTS	0	18627	1625170645385,1,1,2
linuxize.com:HSTS	11	18653	1627174622871,1,1,2
metrics.api.drift.com:HSTS	0	18636	1641766158156,1,1,2
edge.skype.com^partitionKey=%28http%2Clive.com%29:HSTS	5	18727	1649595775576,1,1,2
crowdsignal.wordpress.com:HSTS	0	18647	1626654441758,1,0,2
adobe.demdex.net:HSTS	1	18650	1642926749169,1,1,2
d9111520052683418079-t3109006583457556972.id.amgdgt.com:HSTS	0	18649	1627126103196,1,0,2
www.phillipsj.net^partitionKey=%28http%2Cphillipsj.net%29:HSTS	0	18658	1643612105296,1,0,2
firefox.settings.services.mozilla.com:HSTS	30	18883	1663056360912,1,0,2
sjrtp-cdn.marketo.com:HSTS	1	18652	1674725472596,1,0,2
readthedocs.org:HSTS	2	18653	1643158550031,1,0,2
dl.espressif.com:HSTS	0	18636	1625998247793,1,0,2
connect.facebook.net^partitionKey=%28http%2Cderekmolloy.ie%29:HSTS	0	18665	1644276041246,1,1,2
dpm.demdex.net^partitionKey=%28http%2Cmicrosoft.com%29:HSTS	0	18685	1645961913402,1,1,2
www.googletagmanager.com:HSTS	18	18653	1643159895514,1,1,2
ubuntu.com:HSTS	0	18641	1626334989524,1,0,2
www.reddit.com^partitionKey=%28http%2Creddit.com%29:HSTS	4	18727	1633595228283,1,1,2
consumer.suite.office.com^partitionKey=%28http%2Clive.com%29:HSTS	0	18665	1615330396258,1,0,2
cdn.decibelinsight.net:HSTS	1	18646	1642628871224,1,0,2
geolocation.onetrust.com:HSTS	0	18646	1642596173504,1,1,2
events.launchdarkly.com^partitionKey=%28http%2Catlassian.com%29:HSTS	1	18664	1644186197784,1,0,2
ag.gbc.criteo.com^partitionKey=%28http%2Cmost-useful.com%29:HSTS	0	18727	1649579597426,1,0,2
abs.twimg.com:HSTS	3	18652	2242690658852,1,0,2
api-private.atlassian.com^partitionKey=%28http%2Catlassian.com%29:HSTS	1	18664	1928010196657,1,1,2
fonts.googleapis.com^partitionKey=%28http%2Ctechviewleo.com%29:HSTS	0	18709	1648079874168,1,0,2
jira.atlassian.com^partitionKey=%28http%2Catlassian.com%29:HSTS	0	18658	1675148374102,1,0,2
pr.ybp.yahoo.com^partitionKey=%28http%2Cstackoverflow.com%29:HSTS	0	18664	1644186233816,1,0,2
amcdn.msftauth.net^partitionKey=%28http%2Clive.com%29:HSTS	4	18727	1649595762606,1,1,2
fonts.googleapis.com^partitionKey=%28http%2Comgubuntu.co.uk%29:HSTS	0	18710	1648164984343,1,0,2
d9111520052683418079-t3275357195181926892.id.amgdgt.com:HSTS	0	18649	1627126102827,1,0,2
c0.pubmine.com^partitionKey=%28http%2Cwordpress.com%29:HSTS	0	18666	1628318383328,1,0,2
s.yimg.com^partitionKey=%28http%2Cstackoverflow.com%29:HSTS	0	18664	1628202231513,1,0,2
targeting.api.drift.com:HSTS	0	18636	1641766154699,1,1,2
stats.g.doubleclick.net^partitionKey=%28http%2Caskubuntu.com%29:HSTS	0	18685	1625312874238,1,1,2
duckduckgo.com:HSTS	4	18652	1640938770873,1,0,2
outlook.live.com^partitionKey=%28http%2Clive.com%29:HSTS	7	18883	1663056771400,1,1,2
bootstrap.api.drift.com:HSTS	0	18636	1641766153653,1,1,2
askubuntu.com^partitionKey=%28http%2Caskubuntu.com%29:HSTS	0	18685	1629978512971,1,0,2
www.panasonic.com:HSTS	1	18651	1614150940761,1,0,2
askubuntu.com:HSTS	5	18652	1627088820596,1,0,2
www.google-analytics.com^partitionKey=%28http%2Cstackoverflow.com%29:HSTS	0	18664	1623536629411,1,1,2
kde.org:HSTS	0	18641	1626377711144,1,0,2
www.googletagmanager.com^partitionKey=%28http%2Cx410.dev%29:HSTS	0	18727	1649579286272,1,1,2
dc.services.visualstudio.com:HSTS	2	18652	1643074076105,1,0,2
crowdsignal.com^partitionKey=%28http%2Cwordpress.com%29:HSTS	0	18666	1644302188722,1,0,2
www.googletagmanager.com^partitionKey=%28http%2Creddit.com%29:HSTS	3	18727	1649578645874,1,1,2
cdn.ampproject.org^partitionKey=%28http%2Cmost-useful.com%29:HSTS	0	18727	1649579591619,1,1,2
mem.gfx.ms^partitionKey=%28http%2Cmicrosoft.com%29:HSTS	1	18685	1645962148180,1,1,2
cdn.ampproject.org:HSTS	8	18651	1642288601022,1,1,2
cdnjs.cloudflare.com^partitionKey=%28http%2Cmost-useful.com%29:HSTS	0	18727	1633824664697,1,0,2
cdn.syndication.twimg.com:HSTS	1	18647	2242241015615,1,0,2
d9111520052683418079-t2968174023381962260.id.amgdgt.com:HSTS	0	18650	1627208265784,1,0,2
login.newscorpaustralia.com:HSTS	17	18653	1643167344707,1,0,2
checkout-sdk.bigcommerce.com:HSTS	1	18653	1643158562250,1,1,2
login.wikimedia.org^partitionKey=%28http%2Cwikipedia.org%29:HSTS	0	18665	1719123706211,1,1,2
cms-xch-chicago.33across.com:HSTS	10	18653	1643159913587,1,1,2
cdn.cookielaw.org^partitionKey=%28http%2Catlassian.com%29:HSTS	1	18664	1644186193472,1,1,2
contile.services.mozilla.com:HSTS	0	18883	1663056649597,1,0,2
cdn.optimizely.com:HSTS	0	18652	1627380260645,1,0,2
www91.intel.com^partitionKey=%28http%2Cintel.com%29:HSTS	0	18726	1649468246280,1,1,2
connect.facebook.net^partitionKey=%28http%2Cvermontmedical.com.au%29:HSTS	0	18710	1648163331499,1,1,2
incoming.telemetry.mozilla.org:HSTS	0	18883	1647288591223,1,0,2
dpm.demdex.net^partitionKey=%28http%2Cintel.com%29:HSTS	0	18726	1649468244269,1,1,2
dta.demdex.net:HSTS	0	18627	1640938970128,1,1,2
miketabor.com:HSTS	0	18632	1641352398004,1,1,2
www.facebook.com^partitionKey=%28http%2Cvermontmedical.com.au%29:HSTS	0	18710	1648163761929,1,1,2
tags.bkrtx.com:HSTS	0	18632	1625566387535,1,1,2
id5-sync.com^partitionKey=%28http%2Ctechviewleo.com%29:HSTS	0	18709	1679615416795,1,1,2
www.googletagmanager.com^partitionKey=%28http%2Cvermontmedical.com.au%29:HSTS	0	18710	1648163329739,1,1,2
www.intra2net.com:HSTS	0	18652	1643085907001,1,0,2
ups.analytics.yahoo.com^partitionKey=%28http%2Cwordpress.com%29:HSTS	0	18666	1644302187867,1,0,2
assets.gitlab-static.net:HSTS	3	18653	1641427643614,1,0,2
answers.microsoft.com^partitionKey=%28http%2Cmicrosoft.com%29:HSTS	0	18666	1612851622015,1,1,2
c.aaxads.com^partitionKey=%28http%2Creddit.com%29:HSTS	2	18727	1618647445156,1,0,2
edge.spiceworksstatic.com:HSTS	0	18632	1641377587141,1,0,2
crowdsignal.com:HSTS	0	18647	1642638442163,1,0,2
community.spiceworks.com:HSTS	0	18632	1641377720633,1,0,2
swa.st.com:HSTS	1	18627	1640938350351,1,1,2
trouter-azsc-asse-0-a.trouter.skype.com^partitionKey=%28http%2Clive.com%29:HSTS	5	18727	1649595776338,1,1,2
d9111520052683418079-t9183577646721346015.id.amgdgt.com:HSTS	0	18641	1626425676435,1,0,2
pip.pypa.io:HSTS	0	18637	1641810541692,1,1,2
licensebuttons.net:HSTS	0	18652	1627306231256,1,0,2
stats.g.doubleclick.net^partitionKey=%28http%2Catlassian.com%29:HSTS	1	18664	1623536598578,1,1,2
slvirtualguy.com:HSTS	0	18632	1609903400977,1,0,2
electronics.stackexchange.com:HSTS	0	18647	1626654573434,1,0,2
www.ti.com.cn:HSTS	0	18646	1642628870756,1,0,2
www.digikey.com:HSTS	2	18652	1643147991664,1,1,2
intelcorp.demdex.net^partitionKey=%28http%2Cintel.com%29:HSTS	0	18726	1649468242349,1,1,2
stats.g.doubleclick.net^partitionKey=%28http%2Comgubuntu.co.uk%29:HSTS	0	18710	1627515385694,1,1,2
www.theguardian.com:HSTS	0	18651	1643022545947,1,1,2
gateway.reddit.com^partitionKey=%28http%2Creddit.com%29:HSTS	3	18727	1649579211789,1,1,2
match.prod.bidr.io^partitionKey=%28http%2Ctechviewleo.com%29:HSTS	0	18709	1619135416648,1,1,2
docs.espressif.com:HSTS	11	18653	1627390617871,1,0,2
github.com:HSTS	6	18652	1643074850296,1,1,2
forum.hsbne.org:HSTS	0	18632	1641351570438,1,0,2
trouter-neu-b.trouter.skype.com^partitionKey=%28http%2Clive.com%29:HSTS	0	18666	1644300613395,1,1,2
secure.insightexpressai.com^partitionKey=%28http%2Creddit.com%29:HSTS	0	18666	1644302606590,1,1,2
www.ebayadservices.com^partitionKey=%28http%2Ctheaustralian.com.au%29:HSTS	0	18665	1644275387461,1,0,2
bh.contextweb.com:HSTS	9	18653	1627390742982,1,0,2
dnacdn.net^partitionKey=%28http%2Ctheaustralian.com.au%29:HSTS	5	18727	1649577510268,1,0,2
gum.criteo.com^partitionKey=%28http%2Ctechviewleo.com%29:HSTS	0	18709	1648079411965,1,0,2
snapcraft.io:HSTS	10	18652	1626335297358,1,0,2
hm.baidu.com:HSTS	1	18652	1611784804720,1,0,2
elqtrk.intel.com^partitionKey=%28http%2Cintel.com%29:HSTS	0	18726	1649468244023,1,0,2
support.signal.org:HSTS	0	18653	1611881804414,1,0,2
pixel.advertising.com^partitionKey=%28http%2Cwordpress.com%29:HSTS	0	18666	1644302187906,1,0,2
cdn.cookielaw.org:HSTS	0	18646	1642596173432,1,1,2
stats.g.doubleclick.net^partitionKey=%28http%2Cbom.gov.au%29:HSTS	1	18711	1627517866896,1,1,2
ssl.google-analytics.com^partitionKey=%28http%2Ccprieto.com%29:HSTS	0	18664	1623536727934,1,1,2
graph.facebook.com^partitionKey=%28http%2Cwordpress.com%29:HSTS	0	18666	1628318187134,1,0,2
www.tecmint.com:HSTS	0	18632	1620727857110,1,1,2
commons.wikimedia.org:HSTS	4	18652	1717921526326,1,1,2
login.live.com^partitionKey=%28http%2Cmicrosoft.com%29:HSTS	1	18685	1645962279841,1,0,2
avatars1.githubusercontent.com:HSTS	1	18637	1641811164489,1,0,2
www.most-useful.com^partitionKey=%28http%2Cmost-useful.com%29:HSTS	0	18727	1618648396157,1,0,2
somni.nine.com.au:HSTS	0	18627	1640938539418,1,1,2
api.bigzeta.com:HSTS	1	18652	1627336383381,1,1,2
techviewleo.com^partitionKey=%28http%2Ctechviewleo.com%29:HSTS	0	18709	1648079421724,1,1,2
polyfill.io^partitionKey=%28http%2Catlassian.com%29:HSTS	1	18664	1644186190891,1,1,2
cdn.speedcurve.com:HSTS	2	18649	1627117688887,1,0,2
samsungseao.demdex.net:HSTS	0	18627	1640939995325,1,1,2
api.github.com:HSTS	4	18652	1643074850093,1,1,2
lnkd.demdex.net:HSTS	2	18651	1643058290809,1,1,2
store.google.com:HSTS	0	18632	1641365421482,1,1,2
syndication.twitter.com:HSTS	6	18652	2242690658735,1,0,2
confluence.atlassian.com^partitionKey=%28http%2Catlassian.com%29:HSTS	1	18664	1675722191328,1,0,2
a1096093.cdn.optimizely.com^partitionKey=%28http%2Catlassian.com%29:HSTS	1	18664	1628418194250,1,0,2
d9111520052683418079-t2585926651301870172.id.amgdgt.com:HSTS	0	18650	1627209493601,1,0,2
docs.python-guide.org:HSTS	0	18637	1641788967539,1,0,2
d9111520052683418079-t4542229885960855081.id.amgdgt.com:HSTS	0	18650	1627209186523,1,0,2
event.api.drift.com:HSTS	0	18636	1641766154796,1,1,2
bh.contextweb.com^partitionKey=%28http%2Ctechviewleo.com%29:HSTS	0	18709	1632311416487,1,0,2
metrics.theaustralian.com.au:HSTS	17	18653	1643167344817,1,1,2
gem.gbc.criteo.com^partitionKey=%28http%2Ctheaustralian.com.au%29:HSTS	5	18727	1649577509679,1,0,2
www.google-analytics.com^partitionKey=%28http%2Cgoogle.com%29:HSTS	0	18685	1625311832950,1,1,2
ajax.cloudflare.com:HSTS	0	18641	1626438826743,1,1,2
apis.google.com^partitionKey=%28http%2Cderekmolloy.ie%29:HSTS	0	18665	1644276040655,1,0,2
weatherapi.pelmorex.com:HSTS	0	18627	1609488913810,1,0,2
cdn.shopify.com:HSTS	0	18644	1673936246960,1,1,2
m.stripe.com:HSTS	0	18641	1642165120811,1,1,2
meta.wikimedia.org:HSTS	3	18652	1717921524825,1,1,2
stats.g.doubleclick.net^partitionKey=%28http%2Csnapcraft.io%29:HSTS	0	18685	1625311463856,1,1,2
improving.duckduckgo.com:HSTS	1	18627	1640938770962,1,0,2
ag.gbc.criteo.com^partitionKey=%28http%2Ctheaustralian.com.au%29:HSTS	5	18727	1649577509681,1,0,2
attachment.outlook.live.net^partitionKey=%28http%2Clive.com%29:HSTS	4	18726	1649468197272,1,1,2
um.simpli.fi^partitionKey=%28http%2Creddit.com%29:HSTS	1	18685	1677496274687,1,1,2
www.facebook.com^partitionKey=%28http%2Cderekmolloy.ie%29:HSTS	0	18665	1628292044087,1,0,2
public-api.wordpress.com^partitionKey=%28http%2Cwordpress.com%29:HSTS	0	18666	1628318187280,1,0,2
www.google-analytics.com^partitionKey=%28http%2Cmost-useful.com%29:HSTS	0	18727	1628929986912,1,1,2
fonts.googleapis.com^partitionKey=%28http%2Cderekmolloy.ie%29:HSTS	0	18665	1644277709373,1,0,2
stats.kde.org:HSTS	0	18641	1626377743193,1,0,2
q.stripe.com:HSTS	0	18641	1642165121368,1,1,2
sgw-analytics.panasonic.com:HSTS	0	18649	1642826789702,1,1,2
www.facebook.com^partitionKey=%28http%2Cquora.com%29:HSTS	0	18666	1628316377821,1,0,2
beap-bc.yahoo.com:HSTS	0	18652	1627103697940,1,0,2
pr-bh.ybp.yahoo.com:HSTS	1	18653	1643159963192,1,0,2
tracking.g2crowd.com:HSTS	0	18632	1610446242085,1,0,2
medium.com:HSTS	0	18652	1627164634699,1,1,2
www.google-analytics.com^partitionKey=%28http%2Cbom.gov.au%29:HSTS	1	18711	1627514847089,1,1,2
storage.live.com:HSTS	16	18653	1643161797904,1,1,2
communities.apple.com^partitionKey=%28http%2Capple.com%29:HSTS	0	18685	1645962389962,1,1,2
dpm.demdex.net^partitionKey=%28http%2Ctheaustralian.com.au%29:HSTS	5	18727	1649577506680,1,1,2
my.st.com:HSTS	1	18627	1640938345412,1,1,2
www.managemyhealth.com.au^partitionKey=%28http%2Cvermontmedical.com.au%29:HSTS	0	18710	1648163331168,1,1,2
y2y10mz7jy-dsn.algolia.net:HSTS	0	18641	1642144213710,1,1,2
fonts.googleapis.com^partitionKey=%28http%2Cvermontmedical.com.au%29:HSTS	0	18710	1648163331899,1,0,2
dnacdn.net^partitionKey=%28http%2Cmost-useful.com%29:HSTS	0	18727	1649579598483,1,0,2
custom.yieldify.com:HSTS	1	18651	1643058937227,1,1,2
en.wikipedia.org:HSTS	5	18652	1717922846641,1,1,2
phillipsj.net:HSTS	0	18632	1641362976533,1,0,2
stats.g.doubleclick.net^partitionKey=%28http%2Cgoogle.com%29:HSTS	0	18685	1625311833991,1,1,2
js.driftqa.com:HSTS	0	18636	1641766149665,1,1,2
sourcepoint.theguardian.com:HSTS	0	18651	1611486848854,1,0,2
apis.google.com^partitionKey=%28http%2Cquora.com%29:HSTS	0	18666	1644300377551,1,0,2
www.intel.com^partitionKey=%28http%2Cintel.com%29:HSTS	0	18726	1649468445605,1,0,2
c.disquscdn.com:HSTS	0	18637	1610253200442,1,1,2
um.simpli.fi:HSTS	12	18653	1674695959332,1,1,2
polyfill.guim.co.uk:HSTS	0	18651	1643023067863,1,1,2
gitlab.com^partitionKey=%28http%2Ccliutils.gitlab.io%29:HSTS	0	18665	1644278280510,1,0,2
d9111520052683418079-t7879595189975282739.id.amgdgt.com:HSTS	0	18651	1627256819683,1,0,2
img03.en25.com^partitionKey=%28http%2Clive.com%29:HSTS	0	18726	1649468195125,1,1,2
i.imgur.com:HSTS	1	18647	1611102608583,1,0,2
outlook.office365.com:HSTS	2	18634	1641524961788,1,1,2
amcdn.msftauth.net:HSTS	15	18652	1643146240368,1,1,2
cdn.ampproject.org^partitionKey=%28http%2Ctechviewleo.com%29:HSTS	0	18709	1648079425418,1,1,2
js.driftt.com:HSTS	0	18636	1641766152715,1,1,2
connect.facebook.net:HSTS	19	18653	1643167037613,1,1,2
avatars.githubusercontent.com:HSTS	2	18653	1643180223452,1,0,2
www.apple.com^partitionKey=%28http%2Capple.com%29:HSTS	0	18685	1645962389915,1,1,2
www.awxcdn.com:HSTS	0	18627	1625170524821,1,1,2
fonts.googleapis.com^partitionKey=%28http%2Cautoize.com%29:HSTS	0	18727	1649577596447,1,0,2
res-1.cdn.office.net:HSTS	0	18653	1643161810381,1,1,2
www.omgubuntu.co.uk^partitionKey=%28http%2Comgubuntu.co.uk%29:HSTS	0	18710	1648164981358,1,0,2
intake-analytics.wikimedia.org:HSTS	0	18644	1717241088427,1,1,2
raw.githubusercontent.com:HSTS	8	18653	1643158615727,1,0,2
consumer.suite.office.com:HSTS	16	18653	1614217797530,1,0,2
stmicroelectronics.demdex.net:HSTS	1	18627	1640938344090,1,1,2
149366088.v2.pressablecdn.com^partitionKey=%28http%2Comgubuntu.co.uk%29:HSTS	0	18710	1632180982003,1,0,2
i6.liadm.com:HSTS	2	18653	1643158741176,1,1,2
d9111520052683418079-t7158540893998030377.id.amgdgt.com:HSTS	0	18650	1627209185996,1,0,2
d9111520052683418079-t2464429565331612564.id.amgdgt.com:HSTS	0	18649	1627125797305,1,0,2
www.health.gov.au:HSTS	16	18653	1627379073720,1,0,2
www.youtube.com^partitionKey=%28http%2Creddit.com%29:HSTS	0	18727	1649579209193,1,0,2
cdnjs.cloudflare.com^partitionKey=%28http%2Comgubuntu.co.uk%29:HSTS	0	18710	1632408981521,1,0,2
ssl.google-analytics.com:HSTS	7	18652	1622436251817,1,1,2
mscom.demdex.net^partitionKey=%28http%2Cmicrosoft.com%29:HSTS	0	18685	1645962279618,1,1,2
packages.ubuntu.com:HSTS	0	18632	1641353450318,1,0,2
cdn.cookielaw.org^partitionKey=%28http%2Caskubuntu.com%29:HSTS	0	18685	1645962512655,1,1,2
d9111520052683418079-t3602774354652430980.id.amgdgt.com:HSTS	0	18650	1627208879283,1,0,2
autoize.com^partitionKey=%28http%2Cautoize.com%29:HSTS	0	18727	1633810534726,1,0,2
www.google-analytics.com^partitionKey=%28http%2Ccprieto.com%29:HSTS	0	18664	1623536727947,1,1,2
s429496402.t.eloqua.com:HSTS	1	18651	1643058941998,1,0,2
log.quora.com:HSTS	0	18648	1674340254445,1,1,2
www.googletagmanager.com^partitionKey=%28http%2Cvisualstudio.com%29:HSTS	0	18709	1648079988353,1,1,2
visitor-service-ap-southeast-2.tealiumiq.com:HSTS	1	18652	1643148003840,1,1,2
server.ethicalads.io:HSTS	2	18653	1643158551549,1,1,2
dl.flathub.org:HSTS	0	18632	1625583569834,1,0,2
apis.google.com:HSTS	15	18653	1643058178162,1,0,2
panasonicglobal.demdex.net:HSTS	0	18649	1642826613817,1,1,2
149366088.v2.pressablecdn.com^partitionKey=%28http%2Cpressablecdn.com%29:HSTS	0	18710	1632097155962,1,0,2
pylibftdi.readthedocs.io:HSTS	7	18653	1643158551708,1,1,2
api.asm.skype.com^partitionKey=%28http%2Clive.com%29:HSTS	0	18727	1649595775172,1,1,2
login.wikimedia.org:HSTS	4	18652	1717921525008,1,1,2
services.addons.mozilla.org:HSTS	24	18727	1649578002239,1,0,2
camo.githubusercontent.com:HSTS	3	18652	1643074850015,1,1,2
dnacdn.net:HSTS	17	18653	1643167349001,1,0,2
mcuoneclipse.wordpress.com:HSTS	0	18647	1626654627152,1,0,2
account.arm.com:HSTS	2	18652	1643074064511,1,1,2
www.youtube-nocookie.com:HSTS	0	18647	1642637870074,1,0,2
stats.autoize.com^partitionKey=%28http%2Cautoize.com%29:HSTS	0	18727	1681113600915,1,1,2
gitlab.kitware.com^partitionKey=%28http%2Ckitware.com%29:HSTS	0	18664	1644186491494,1,0,2
cdn.jsdelivr.net:HSTS	17	18653	1643161824229,1,1,2
s7.addthis.com:HSTS	2	18651	1627247740148,1,1,2
d9111520052683418079-t2657984245339798108.id.amgdgt.com:HSTS	0	18650	1627209493630,1,0,2
connect.facebook.net^partitionKey=%28http%2Ctheaustralian.com.au%29:HSTS	5	18727	1649577501766,1,1,2
pbs.twimg.com:HSTS	3	18652	2242690658847,1,0,2
www.googletagmanager.com^partitionKey=%28http%2Comgubuntu.co.uk%29:HSTS	0	18710	1648081152143,1,1,2
ups.analytics.yahoo.com^partitionKey=%28http%2Cstackoverflow.com%29:HSTS	0	18664	1644186234269,1,0,2
edge.skype.com:HSTS	16	18653	1643161805603,1,1,2
ups.analytics.yahoo.com:HSTS	0	18653	1643159907161,1,0,2
aus5.mozilla.org:HSTS	26	18883	1663056416416,1,0,2
fonts.googleapis.com:HSTS	18	18653	1643160023368,1,0,2
go.trouter.skype.com^partitionKey=%28http%2Clive.com%29:HSTS	5	18727	1649595775397,1,1,2
apis.google.com^partitionKey=%28http%2Comgubuntu.co.uk%29:HSTS	0	18710	1648164984214,1,0,2
www.facebook.com^partitionKey=%28http%2Ctechviewleo.com%29:HSTS	0	18709	1632095913765,1,0,2
ghbtns.com:HSTS	0	18637	1641788965603,1,1,2
trouter-azsc-asse-0-a.trouter.skype.com:HSTS	11	18653	1643161806677,1,1,2
www.googletagmanager.com^partitionKey=%28http%2Csnapcraft.io%29:HSTS	0	18685	1645961062309,1,1,2
gql.reddit.com^partitionKey=%28http%2Creddit.com%29:HSTS	3	18727	1649579210154,1,1,2
accounts.spiceworks.com:HSTS	0	18632	1641377587055,1,1,2
services.pelmorex.com:HSTS	0	18627	1609488913383,1,1,2
c1.adform.net:HSTS	13	18653	1643160024040,1,1,2
onetag-sys.com:HSTS	6	18653	1614214738647,1,0,2
shavar.services.mozilla.com^firstPartyDomain=safebrowsing.86868755-6b82-4842-b301-72671a0db32e.mozilla:HSTS	26	18883	1663056357681,1,1,2
avatar.skype.com^partitionKey=%28http%2Clive.com%29:HSTS	3	18726	1649468205163,1,1,2
8228261.fls.doubleclick.net^partitionKey=%28http%2Ctheaustralian.com.au%29:HSTS	5	18727	1618063104104,1,0,2
www.google-analytics.com^partitionKey=%28http%2Comgubuntu.co.uk%29:HSTS	0	18710	1627431553146,1,1,2
www.facebook.com^partitionKey=%28http%2Cintel.com%29:HSTS	0	18726	1649468244927,1,1,2
c0.wp.com:HSTS	0	18647	1626653815448,1,0,2
links.duckduckgo.com:HSTS	1	18627	1640938609310,1,0,2
media.ethicalads.io:HSTS	2	18653	1643158549984,1,1,2
cdn-client.medium.com:HSTS	0	18652	1627164267100,1,1,2
www.google.com:HSTS	19	18658	1643159894179,1,0,2
c1.adform.net^partitionKey=%28http%2Creddit.com%29:HSTS	0	18666	1644302612787,1,1,2
www.google-analytics.com^partitionKey=%28http%2Caskubuntu.com%29:HSTS	0	18685	1625312873586,1,1,2
profile.skype.com^partitionKey=%28http%2Clive.com%29:HSTS	5	18727	1649595780439,1,1,2
dashboard.snapcraft.io^partitionKey=%28http%2Csnapcraft.io%29:HSTS	0	18685	1617016323038,1,0,2
c.disquscdn.com^partitionKey=%28http%2Comgubuntu.co.uk%29:HSTS	0	18710	1616629286714,1,1,2
collection.decibelinsight.net:HSTS	2	18646	1642628871419,1,0,2
login.live.com^partitionKey=%28http%2Clive.com%29:HSTS	6	18883	1663056743366,1,0,2
d9111520052683418079-t3530716760614503044.id.amgdgt.com:HSTS	0	18650	1627208879300,1,0,2
newscorpau.demdex.net:HSTS	16	18653	1643158200313,1,1,2
i.creativecommons.org:HSTS	0	18652	1627306230513,1,0,2
d9111520052683418079-t2779775869175586345.id.amgdgt.com:HSTS	0	18649	1627126410166,1,0,2
m.stripe.network:HSTS	0	18641	1642165120136,1,1,2
ssl.google-analytics.com^partitionKey=%28http%2Ccodelite.org%29:HSTS	1	18710	1627431214103,1,1,2
r.skimresources.com^partitionKey=%28http%2Cwordpress.com%29:HSTS	0	18666	1644302192953,1,0,2
www.quora.com:HSTS	4	18651	1674594260290,1,1,2
collector.githubapp.com:HSTS	4	18652	2242677369507,1,0,2
c1.adform.net^partitionKey=%28http%2Ctheaustralian.com.au%29:HSTS	0	18665	1644275388542,1,1,2
storage.live.com^partitionKey=%28http%2Cmicrosoft.com%29:HSTS	0	18685	1645962280687,1,1,2
support.particle.io:HSTS	0	18647	1611360703372,1,0,2
profile.skype.com:HSTS	16	18653	1643161809968,1,1,2
d9111520052683418079-t4492889369704297523.id.amgdgt.com:HSTS	0	18651	1627256820083,1,0,2
phillipsj.net^partitionKey=%28http%2Cphillipsj.net%29:HSTS	0	18658	1643612104377,1,0,2
app.launchdarkly.com^partitionKey=%28http%2Catlassian.com%29:HSTS	1	18664	1612650495796,1,0,2
ag.gbc.criteo.com^partitionKey=%28http%2Ctechviewleo.com%29:HSTS	0	18709	1648079412752,1,0,2
docs.microsoft.com:HSTS	14	18653	1643158624215,1,1,2
y2y10mz7jy-1.algolianet.com:HSTS	0	18632	1641426474859,1,1,2
interactive.guim.co.uk:HSTS	0	18651	1643022548950,1,0,2
ubuntu.stackexchange.com:HSTS	1	18645	1626503467288,1,0,2
connect.facebook.net^partitionKey=%28http%2Cintel.com%29:HSTS	0	18726	1649468244209,1,1,2
assets.guim.co.uk:HSTS	0	18651	1643023066910,1,0,2
id5-sync.com:HSTS	10	18653	1674695903785,1,1,2
nd.demdex.net:HSTS	0	18627	1640938539728,1,1,2
miro.medium.com:HSTS	0	18652	1627164632197,1,1,2
a.lw.skype.com^partitionKey=%28http%2Clive.com%29:HSTS	5	18727	1625835774870,1,0,2
avatars3.githubusercontent.com:HSTS	2	18645	1642514190357,1,0,2
outlook-1.cdn.office.net:HSTS	17	18653	1643161806536,1,1,2
stackexchange.com^partitionKey=%28http%2Caskubuntu.com%29:HSTS	0	18685	1629978473295,1,0,2
www.facebook.com:HSTS	19	18653	1643167346014,1,1,2
www.microsoft.com^partitionKey=%28http%2Cvisualstudio.com%29:HSTS	0	18709	1648079990363,1,0,2
geolocation.onetrust.com^partitionKey=%28http%2Catlassian.com%29:HSTS	1	18664	1644186193884,1,1,2
d9111520052683418079-t2569498229112615746.id.amgdgt.com:HSTS	0	18650	1627208572432,1,0,2
res.cloudinary.com^partitionKey=%28http%2Csnapcraft.io%29:HSTS	0	18685	1615030165563,1,0,2
r-login.wordpress.com:HSTS	1	18647	1626654405764,1,0,2
res-1.cdn.office.net^partitionKey=%28http%2Clive.com%29:HSTS	4	18727	1649595782319,1,1,2
www.ebayadservices.com^partitionKey=%28http%2Cderekmolloy.ie%29:HSTS	0	18665	1644278122256,1,0,2
gem.gbc.criteo.com^partitionKey=%28http%2Cmost-useful.com%29:HSTS	0	18727	1649579597932,1,0,2
lg3.media.net:HSTS	0	18651	1611544442666,1,0,2
config.edge.skype.com:HSTS	16	18653	1643161805222,1,1,2
www.googletagmanager.com^partitionKey=%28http%2Catlassian.com%29:HSTS	1	18664	1644186196305,1,1,2
metrics.brightcove.com:HSTS	1	18652	1611579727875,1,1,2
learning.oreilly.com:HSTS	0	18636	1641766378780,1,1,2
ogs.google.com:HSTS	8	18652	1643073122805,1,0,2
checkout.stripe.com:HSTS	0	18641	1642165120484,1,1,2
res.cloudinary.com:HSTS	2	18653	1612228724873,1,0,2
ac.duckduckgo.com^firstPartyDomain=duckduckgo.search.suggestions.mozilla:HSTS	1	18627	1640938766441,1,0,2
dpm.demdex.net:HSTS	18	18653	1643165504197,1,1,2
www.ebayadservices.com:HSTS	6	18653	1643158794256,1,0,2
connect.facebook.net^partitionKey=%28http%2Cquora.com%29:HSTS	0	18666	1644300377459,1,1,2
i.liadm.com:HSTS	2	18653	1643158740421,1,1,2
www.westinghouse.com.au:HSTS	0	18648	1642742781148,1,1,2
www.xilinx.com:HSTS	0	18646	1642596174663,1,1,2
www.ebayadservices.com^partitionKey=%28http%2Comgubuntu.co.uk%29:HSTS	0	18710	1648164985070,1,0,2
cdnjs.cloudflare.com^partitionKey=%28http%2Ctechviewleo.com%29:HSTS	0	18709	1632323428978,1,0,2
ups.analytics.yahoo.com^partitionKey=%28http%2Ctheaustralian.com.au%29:HSTS	0	18665	1644275387691,1,0,2
id5-sync.com^partitionKey=%28http%2Ctheaustralian.com.au%29:HSTS	1	18727	1681113503817,1,1,2
d9111520052683418079-t2696083471164482452.id.amgdgt.com:HSTS	0	18649	1627125797396,1,0,2
fonts.googleapis.com^partitionKey=%28http%2Ctheaustralian.com.au%29:HSTS	1	18666	1644300828310,1,0,2
avatar.skype.com:HSTS	5	18652	1643072539958,1,1,2
gem.gbc.criteo.com:HSTS	17	18653	1643167347467,1,0,2
lpx.qantas.com:HSTS	0	18651	1643022549318,1,1,2
connect.facebook.net^partitionKey=%28http%2Catlassian.com%29:HSTS	1	18664	1644186197886,1,1,2
www.microsoft.com^partitionKey=%28http%2Cmicrosoft.com%29:HSTS	1	18685	1645962280279,1,0,2
www.smarthomebeginner.com:HSTS	0	18644	1626416057466,1,0,2
td.yieldify.com:HSTS	1	18651	1643058939206,1,1,2
avatars2.githubusercontent.com:HSTS	2	18637	1641811058085,1,0,2
cdn.jsdelivr.net^partitionKey=%28http%2Ccprieto.com%29:HSTS	0	18664	1644186326959,1,1,2
hackaday.io:HSTS	10	18651	1626654716227,1,1,2
www.ti.com:HSTS	1	18651	1642992835317,1,0,2
fonts.googleapis.com^partitionKey=%28http%2Cmost-useful.com%29:HSTS	0	18727	1649580568635,1,0,2
stackoverflow.com:HSTS	10	18653	1627174611279,1,0,2
ajax.cloudflare.com^partitionKey=%28http%2Cautoize.com%29:HSTS	0	18727	1633821596057,1,1,2
login.live.com:HSTS	19	18653	1643166089656,1,0,2
classify-client.services.mozilla.com:HSTS	28	18883	1663056737668,1,0,2
www.google.com^partitionKey=%28http%2Cgoogle.com%29:HSTS	7	18727	1649579583583,1,0,2
pr-bh.ybp.yahoo.com^partitionKey=%28http%2Ctechviewleo.com%29:HSTS	0	18709	1648079415932,1,0,2
metrics.theaustralian.com.au^partitionKey=%28http%2Ctheaustralian.com.au%29:HSTS	6	18883	1663056357391,1,1,2
a.apac01.idio.episerver.net:HSTS	0	18648	1674278545851,1,1,2
avatar.guim.co.uk:HSTS	0	18651	1611571667435,1,0,2
apps.kde.org:HSTS	0	18641	1626377709137,1,0,2
s.update.a-mo.net:HSTS	0	18642	1642241203625,1,1,2
www.facebook.com^partitionKey=%28http%2Comgubuntu.co.uk%29:HSTS	0	18710	1632180985299,1,0,2
www.ebayadservices.com^partitionKey=%28http%2Ctechviewleo.com%29:HSTS	0	18709	1648079843259,1,0,2
www.google-analytics.com^partitionKey=%28http%2Csnapcraft.io%29:HSTS	0	18685	1645960159957,1,1,2
d9111520052683418079-t2365872907899949773.id.amgdgt.com:HSTS	0	18650	1627207958909,1,0,2
js.stripe.com:HSTS	0	18641	1642165120034,1,1,2
attachment.outlook.live.net:HSTS	11	18653	1643161802638,1,1,2
api.github.com^partitionKey=%28http%2Cvisualstudio.com%29:HSTS	0	18709	1648079989615,1,1,2
en.wikipedia.org^partitionKey=%28http%2Cwikipedia.org%29:HSTS	1	18666	1719150756627,1,1,2
badges.gitter.im^partitionKey=%28http%2Ccodelite.org%29:HSTS	1	18710	1648080813577,1,0,2
gum.criteo.com:HSTS	17	18653	1643167350036,1,0,2
pr-bh.ybp.yahoo.com^partitionKey=%28http%2Cstackoverflow.com%29:HSTS	0	18664	1644186234591,1,0,2
outlook.live.com:HSTS	20	18658	1643170506720,1,1,2
match.prod.bidr.io:HSTS	8	18653	1614214740244,1,1,2
unsw.demdex.net:HSTS	0	18644	1642398650886,1,1,2
www.weathertab.com:HSTS	0	18627	1625170552205,1,0,2
connect.facebook.net^partitionKey=%28http%2Comgubuntu.co.uk%29:HSTS	0	18710	1648164984321,1,1,2
a.fsdn.com:HSTS	0	18637	1641800870951,1,0,2
pixel.advertising.com:HSTS	13	18653	1643158738802,1,0,2
normandy.cdn.mozilla.net:HSTS	28	18883	1663056737375,1,0,2
stats.g.doubleclick.net^partitionKey=%28http%2Cstackoverflow.com%29:HSTS	0	18664	1623536630517,1,1,2
edge.api.brightcove.com:HSTS	1	18652	1689327162784,1,1,2
d9111520052683418079-t3203360291526748639.id.amgdgt.com:HSTS	0	18641	1626425676613,1,0,2
pr-bh.ybp.yahoo.com^partitionKey=%28http%2Creddit.com%29:HSTS	0	18685	1645960034219,1,0,2
avatars0.githubusercontent.com:HSTS	4	18649	1642906116832,1,0,2
syndication.twitter.com^partitionKey=%28http%2Cderekmolloy.ie%29:HSTS	0	18665	2243878561161,1,0,2
xpack.github.io:HSTS	0	18636	1641729981047,1,0,2
go.trouter.skype.com:HSTS	17	18653	1643161805440,1,1,2
stats.g.doubleclick.net^partitionKey=%28http%2Cvermontmedical.com.au%29:HSTS	0	18710	1627513731188,1,1,2
ton.twimg.com:HSTS	0	18647	2242240925382,1,0,2
s.acexedge.com:HSTS	3	18650	1642926341944,1,1,2
silabs.demdex.net:HSTS	0	18647	1642637283402,1,1,2
apis.google.com^partitionKey=%28http%2Cgoogle.com%29:HSTS	0	18664	1644186365007,1,0,2
discussions.apple.com^partitionKey=%28http%2Capple.com%29:HSTS	0	18685	1645962389558,1,1,2
www.facebook.com^partitionKey=%28http%2Ctheaustralian.com.au%29:HSTS	5	18727	1649577503274,1,1,2
kit.fontawesome.com:HSTS	1	18646	1642596172499,1,0,2
lps.qantas.com:HSTS	0	18651	1643022549118,1,1,2
d9111520052683418079-t8646823351760761666.id.amgdgt.com:HSTS	0	18650	1627208572383,1,0,2
ssl.google-analytics.com^partitionKey=%28http%2Cwordpress.com%29:HSTS	0	18666	1623652586734,1,1,2
static.guim.co.uk:HSTS	0	18651	1643022547516,1,0,2
d9111520052683418079-t2896116429344034324.id.amgdgt.com:HSTS	0	18650	1627208265775,1,0,2
d9111520052683418079-t8111193403052121641.id.amgdgt.com:HSTS	0	18649	1627126410125,1,0,2
analytics.twitter.com:HSTS	6	18652	2242676586715,1,0,2
www.segger.com:HSTS	1	18647	1626653227586,1,0,2
www.quora.com^partitionKey=%28http%2Cquora.com%29:HSTS	0	18666	1675836520400,1,1,2
cdn.jsdelivr.net^partitionKey=%28http%2Cautoize.com%29:HSTS	0	18727	1649577596058,1,1,2
securemetrics.apple.com^partitionKey=%28http%2Capple.com%29:HSTS	0	18685	1645962407613,1,1,2
ogs.google.com^partitionKey=%28http%2Cgoogle.com%29:HSTS	4	18727	1649577552954,1,0,2
a.disquscdn.com:HSTS	0	18632	1609841741368,1,1,2
c0.pubmine.com:HSTS	0	18647	1626654408955,1,0,2
www.google-analytics.com^partitionKey=%28http%2Cvermontmedical.com.au%29:HSTS	0	18710	1627513729430,1,1,2
video.sekindo.com:HSTS	0	18651	1643024171591,1,0,2
login.newscorpaustralia.com^partitionKey=%28http%2Ctheaustralian.com.au%29:HSTS	5	18727	1649577501313,1,0,2
ag.gbc.criteo.com:HSTS	17	18653	1643167347446,1,0,2
id5-sync.com^partitionKey=%28http%2Cmost-useful.com%29:HSTS	0	18727	1681115597734,1,1,2
sync.colossusssp.com:HSTS	2	18653	1674694740056,1,1,2
related-content-service.services.atlassian.com^partitionKey=%28http%2Catlassian.com%29:HSTS	0	18658	1675148373885,1,0,2
slvirtualguy.wordpress.com:HSTS	0	18632	1625369000710,1,0,2
upload.wikimedia.org^partitionKey=%28http%2Cwikipedia.org%29:HSTS	1	18666	1719150052806,1,1,2
www.google-analytics.com^partitionKey=%28http%2Ctechviewleo.com%29:HSTS	0	18709	1627429822071,1,1,2
